<?xml version="1.0" encoding="UTF-8"?>
<svg width="34px" height="40px" viewBox="0 0 34 40" version="1.1" xmlns="http://www.w3.org/2000/svg" xmlns:xlink="http://www.w3.org/1999/xlink">
    <!-- Generator: Sketch 3.8.1 (29687) - http://www.bohemiancoding.com/sketch -->
    <title>ic-sobre</title>
    <desc>Created with Sketch.</desc>
    <defs></defs>
    <g id="Solicitar" stroke="none" stroke-width="1" fill="none" fill-rule="evenodd">
        <g id="Solicitar-Servicio-02" transform="translate(-482.000000, -356.000000)">
            <g id="Servicio-Único" transform="translate(14.000000, 96.000000)">
                <g id="Dimensiones" transform="translate(1.000000, 192.000000)">
                    <g id="Info" transform="translate(451.000000, 0.000000)">
                        <g id="Sobre" transform="translate(14.000000, 68.000000)">
                            <g id="ic-sobre">
                                <g id="Group">
                                    <g id="Outline_Icons_1_" transform="translate(3.333333, 0.000000)" stroke-linecap="round" stroke="#9B9B9B" stroke-width="1.5" stroke-linejoin="round">
                                        <g id="Outline_Icons">
                                            <g id="Group" transform="translate(-0.000000, 0.000000)">
                                                <path d="M25.775,6.66666667 C25.1416667,7.44833333 23.1816667,7.5 23.1816667,7.5 L8.485,7.5 C8.485,7.5 6.525,7.44833333 5.89166667,6.66666667 L0.833333333,0.833333333 L30.8333333,0.833333333 L25.775,6.66666667 L25.775,6.66666667 Z" id="Shape"></path>
                                                <polygon id="Shape" points="30.8333333 39.1666667 0.833333333 39.1666667 5 34.1666667 26.6666667 34.1666667"></polygon>
                                                <path d="M15,7.55166667 L15,34.1666667" id="Shape"></path>
                                                <path d="M0,39.1666667 L0,0.833333333" id="Shape"></path>
                                                <path d="M31,0.833333333 L31,39.1666667" id="Shape"></path>
                                            </g>
                                        </g>
                                    </g>
                                    <g id="Invisible_Shape">
                                        <rect id="Rectangle-path" x="0" y="0" width="40" height="40"></rect>
                                    </g>
                                </g>
                            </g>
                        </g>
                    </g>
                </g>
            </g>
        </g>
    </g>
</svg>